module github.com/villytiger/cruc

go 1.13

require (
	github.com/imdario/mergo v0.3.8 // indirect
	golang.org/x/oauth2 v0.0.0-20191202225959-858c2ad4c8b6 // indirect
	golang.org/x/time v0.0.0-20191024005414-555d28b269f0 // indirect
	k8s.io/api v0.17.0
	k8s.io/apiextensions-apiserver v0.17.0
	k8s.io/apimachinery v0.17.0
	k8s.io/client-go v0.17.0
	k8s.io/code-generator v0.17.0
	k8s.io/klog v1.0.0
	k8s.io/sample-controller v0.0.0-20191123021055-65e4a1173959
	k8s.io/utils v0.0.0-20191114200735-6ca3b61696b6 // indirect
)
